<svg width="27" height="24" viewBox="0 0 27 24" fill="none" xmlns="http://www.w3.org/2000/svg">
<g clip-path="url(#clip0_105_5861)">
<path d="M2.30729 13.9414C2.13395 14.1678 1.99875 14.3503 1.85488 14.5241C1.68525 14.7412 1.43762 14.8816 1.16609 14.9145C0.894557 14.9474 0.621208 14.8701 0.405775 14.6996C0.297421 14.6171 0.206468 14.5136 0.138284 14.395C0.0701002 14.2764 0.0260658 14.1452 0.00877864 14.0091C-0.00850853 13.8729 0.00130151 13.7347 0.0376308 13.6025C0.0739602 13.4703 0.136072 13.3468 0.220303 13.2393C0.913655 12.3126 1.60701 11.3964 2.31683 10.482C2.6089 10.1038 2.96511 10.0011 3.41406 10.1626C3.62807 10.2377 3.82968 10.3451 4.01207 10.4811C4.83283 11.1051 5.64318 11.7439 6.45701 12.3775C6.58175 12.4654 6.68544 12.5804 6.76043 12.7143C6.83543 12.8481 6.87983 12.9972 6.89035 13.1507C6.91808 13.5895 6.75168 13.9256 6.38334 14.1423C6.2176 14.2497 6.02352 14.3034 5.82691 14.2963C5.63029 14.2893 5.44046 14.2218 5.28264 14.1028C4.98277 13.8922 4.69849 13.664 4.40642 13.4385L4.30675 13.4824C4.50175 14.1423 4.63869 14.8277 4.90216 15.4587C6.2984 18.8048 8.7858 20.8346 12.3375 21.2918C15.9724 21.7604 18.9174 20.3791 21.0989 17.3858C21.4031 16.9681 21.7342 16.6565 22.2758 16.7469C23.0351 16.8733 23.3757 17.7298 22.9337 18.402C22.0371 19.7779 20.8501 20.9352 19.4582 21.7903C12.7145 25.9569 4.01294 22.1378 2.38876 14.3012C2.36883 14.2046 2.34543 14.1098 2.30729 13.9414Z" fill="#18C2E7"/>
<path d="M22.6631 10.6143C22.3632 8.75566 21.656 7.18307 20.4869 5.83689C19.5612 4.75513 18.4033 3.90239 17.1017 3.34408C15.8001 2.78577 14.3896 2.53671 12.9782 2.616C11.5668 2.6953 10.1921 3.10086 8.95952 3.80155C7.72695 4.50225 6.66924 5.47948 5.86753 6.65829C5.58325 7.06986 5.24004 7.33137 4.7313 7.24888C3.97208 7.12602 3.62713 6.26602 4.06568 5.59644C4.85281 4.38463 5.86724 3.34107 7.05143 2.52498C8.59646 1.44799 10.381 0.775384 12.2454 0.567272C14.1099 0.35916 15.9962 0.622024 17.7358 1.33237C19.4755 2.04272 21.0142 3.17843 22.2144 4.63797C23.4147 6.09752 24.2391 7.83544 24.614 9.6964C24.634 9.79206 24.6574 9.88771 24.6929 10.0474C24.8454 9.857 24.9772 9.6964 25.1063 9.53318C25.5041 9.03297 26.1273 8.9338 26.5953 9.29799C27.0633 9.66218 27.1378 10.2931 26.747 10.8144C26.0744 11.713 25.3952 12.6061 24.7094 13.4936C24.38 13.9201 23.9995 14.0201 23.5003 13.8148C23.3391 13.752 23.1869 13.6676 23.0479 13.5638C22.1951 12.9092 21.3463 12.2495 20.5016 11.5849C20.3381 11.4637 20.2157 11.2941 20.1513 11.0996C20.0869 10.905 20.0836 10.695 20.1419 10.4985C20.2433 10.0825 20.5259 9.77802 20.9462 9.7473C21.2417 9.74239 21.5333 9.81591 21.7921 9.96055C22.0833 10.108 22.3268 10.3537 22.6631 10.6143Z" fill="#18C2E7"/>
</g>
<defs>
<clipPath id="clip0_105_5861">
<rect width="27" height="23" fill="white" transform="translate(0 0.5)"/>
</clipPath>
</defs>
</svg>
